{
    "name": "bootstrap",
    "description": "The most popular front-end framework for developing responsive, mobile first projects on the web.",
    "version": "4.1.3",
    "keywords": [
        "css",
        "sass",
        "mobile-first",
        "responsive",
        "front-end",
        "framework",
        "web"
    ],
    "homepage": "https://getbootstrap.com/",
    "author": "The Bootstrap Authors (https://github.com/twbs/bootstrap/graphs/contributors)",
    "contributors": [
        "Twitter, Inc."
    ],
    "style": "dist/css/bootstrap.css",
    "sass": "scss/bootstrap.scss",
    "repository": {
        "type": "git",
        "url": "git+https://github.com/twbs/bootstrap.git"
    },
    "bugs": {
        "url": "https://github.com/twbs/bootstrap/issues"
    },
    "license": "MIT",
    "peerDependencies": {
        "jquery": "1.9.1 - 3",
        "popper.js": "^1.14.3"
    },
    "engines": {
        "node": ">=6"
    },
    "files": [
        "dist/**",
        "!dist/js/npm.js",
        "less/**"
    ],
    "bundlesize": [
        {
            "path": "./dist/css/bootstrap-grid.css",
            "maxSize": "5 kB"
        },
        {
            "path": "./dist/css/bootstrap-grid.min.css",
            "maxSize": "5 kB"
        },
        {
            "path": "./dist/css/bootstrap-reboot.css",
            "maxSize": "3 kB"
        },
        {
            "path": "./dist/css/bootstrap-reboot.min.css",
            "maxSize": "3 kB"
        },
        {
            "path": "./dist/css/bootstrap.css",
            "maxSize": "25 kB"
        },
        {
            "path": "./dist/css/bootstrap.min.css",
            "maxSize": "21 kB"
        },
        {
            "path": "./dist/js/bootstrap.bundle.js",
            "maxSize": "45 kB"
        },
        {
            "path": "./dist/js/bootstrap.bundle.min.js",
            "maxSize": "25 kB"
        },
        {
            "path": "./dist/js/bootstrap.js",
            "maxSize": "21 kB"
        },
        {
            "path": "./dist/js/bootstrap.min.js",
            "maxSize": "15 kB"
        }
    ],
    "jspm": {
        "registry": "npm",
        "main": "js/bootstrap",
        "directories": {
            "lib": "dist"
        },
        "shim": {
            "js/bootstrap": {
                "deps": [
                    "jquery",
                    "popper.js"
                ],
                "exports": "$"
            }
        },
        "dependencies": {
        },
        "peerDependencies": {
            "jquery": "1.9.1 - 3",
            "popper.js": "^1.14.1"
        }
    },
    "render": {
        "css": [
            "css/bootstrap.*",
            "css/bootstrap-theme.*"
        ]
    },
    "origin": "@npm/bootstrap"
}
